<?xml version='1.0' encoding='UTF-8'?>
<glyph name="X" format="2">
  <advance width="910"/>
  <unicode hex="0058"/>
  <unicode hex="0078"/>
  <outline>
    <contour>
      <point x="60" y="405" type="line"/>
      <point x="99" y="405" type="line"/>
      <point x="99" y="431" type="line"/>
      <point x="149" y="431" type="line"/>
      <point x="149" y="457" type="line"/>
      <point x="99" y="457" type="line"/>
      <point x="99" y="469" type="line"/>
      <point x="150" y="469" type="line"/>
      <point x="150" y="495" type="line"/>
      <point x="60" y="495" type="line"/>
    </contour>
    <contour>
      <point x="750" y="341" type="line"/>
      <point x="711" y="341" type="line"/>
      <point x="711" y="321" type="line"/>
      <point x="699" y="321" type="line"/>
      <point x="699" y="359" type="line"/>
      <point x="660" y="359" type="line"/>
      <point x="660" y="303" type="line"/>
      <point x="705" y="303" type="line"/>
      <point x="750" y="303" type="line"/>
      <point x="750" y="331" type="line"/>
    </contour>
    <contour>
      <point x="750" y="358" type="line"/>
      <point x="750" y="396" type="line"/>
      <point x="705" y="396" type="line"/>
      <point x="660" y="396" type="line"/>
      <point x="660" y="355" type="line"/>
      <point x="699" y="355" type="line"/>
      <point x="699" y="378" type="line"/>
      <point x="711" y="378" type="line"/>
      <point x="711" y="358" type="line"/>
    </contour>
    <contour>
      <point x="760" y="405" type="line"/>
      <point x="799" y="405" type="line"/>
      <point x="799" y="495" type="line"/>
      <point x="760" y="495" type="line"/>
    </contour>
    <contour>
      <point x="810" y="405" type="line"/>
      <point x="850" y="405" type="line"/>
      <point x="833" y="450" type="line"/>
      <point x="850" y="495" type="line"/>
      <point x="810" y="495" type="line"/>
      <point x="797" y="450" type="line"/>
    </contour>
    <contour>
      <point x="260" y="205" type="line"/>
      <point x="281" y="205" type="line"/>
      <point x="281" y="231" type="line"/>
      <point x="302" y="231" type="line"/>
      <point x="302" y="257" type="line"/>
      <point x="281" y="257" type="line"/>
      <point x="281" y="269" type="line"/>
      <point x="303" y="269" type="line"/>
      <point x="303" y="295" type="line"/>
      <point x="260" y="295" type="line"/>
    </contour>
    <contour>
      <point x="363" y="205" type="line"/>
      <point x="363" y="295" type="line"/>
      <point x="309" y="295" type="line"/>
      <point x="309" y="205" type="line"/>
    </contour>
    <contour>
      <point x="330" y="221" type="line"/>
      <point x="330" y="278" type="line"/>
      <point x="342" y="278" type="line"/>
      <point x="342" y="221" type="line"/>
    </contour>
    <contour>
      <point x="371" y="205" type="line"/>
      <point x="392" y="205" type="line"/>
      <point x="392" y="255" type="line"/>
      <point x="386" y="295" type="line"/>
      <point x="371" y="295" type="line"/>
    </contour>
    <contour>
      <point x="408" y="205" type="line"/>
      <point x="424" y="205" type="line"/>
      <point x="424" y="295" type="line"/>
      <point x="403" y="295" type="line"/>
      <point x="403" y="239" type="line"/>
    </contour>
    <contour>
      <point x="446" y="205" type="line"/>
      <point x="467" y="205" type="line"/>
      <point x="467" y="295" type="line"/>
      <point x="446" y="295" type="line"/>
    </contour>
    <contour>
      <point x="430" y="295" type="line"/>
      <point x="430" y="269" type="line"/>
      <point x="482" y="269" type="line"/>
      <point x="482" y="295" type="line"/>
    </contour>
    <contour>
      <point x="488" y="205" type="line"/>
      <point x="530" y="205" type="line"/>
      <point x="530" y="231" type="line"/>
      <point x="509" y="231" type="line"/>
      <point x="509" y="242" type="line"/>
      <point x="530" y="242" type="line"/>
      <point x="530" y="258" type="line"/>
      <point x="509" y="258" type="line"/>
      <point x="509" y="269" type="line"/>
      <point x="530" y="269" type="line"/>
      <point x="530" y="295" type="line"/>
      <point x="488" y="295" type="line"/>
    </contour>
    <contour>
      <point x="590" y="225" type="line"/>
      <point x="590" y="241" type="line"/>
      <point x="570" y="262" type="line"/>
      <point x="558" y="262" type="line"/>
      <point x="558" y="279" type="line"/>
      <point x="569" y="279" type="line"/>
      <point x="569" y="266" type="line"/>
      <point x="590" y="266" type="line"/>
      <point x="590" y="295" type="line"/>
      <point x="557" y="295" type="line"/>
      <point x="537" y="275" type="line"/>
      <point x="537" y="259" type="line"/>
      <point x="557" y="239" type="line"/>
      <point x="569" y="239" type="line"/>
      <point x="569" y="221" type="line"/>
      <point x="558" y="221" type="line"/>
      <point x="558" y="233" type="line"/>
      <point x="537" y="233" type="line"/>
      <point x="537" y="205" type="line"/>
      <point x="570" y="205" type="line"/>
    </contour>
    <contour>
      <point x="597" y="205" type="line"/>
      <point x="619" y="205" type="line"/>
      <point x="619" y="295" type="line"/>
      <point x="597" y="295" type="line"/>
    </contour>
    <contour>
      <point x="629" y="205" type="line"/>
      <point x="650" y="205" type="line"/>
      <point x="636" y="250" type="line"/>
      <point x="650" y="295" type="line"/>
      <point x="629" y="295" type="line"/>
      <point x="616" y="250" type="line"/>
    </contour>
    <contour>
      <point x="408" y="205" type="line"/>
      <point x="424" y="205" type="line"/>
      <point x="386" y="295" type="line"/>
      <point x="371" y="295" type="line"/>
    </contour>
    <contour>
      <point x="250" y="105" type="line"/>
      <point x="250" y="195" type="line"/>
      <point x="211" y="195" type="line"/>
      <point x="211" y="121" type="line"/>
      <point x="199" y="121" type="line"/>
      <point x="199" y="195" type="line"/>
      <point x="160" y="195" type="line"/>
      <point x="160" y="105" type="line"/>
    </contour>
    <contour>
      <point x="250" y="305" type="line"/>
      <point x="250" y="395" type="line"/>
      <point x="211" y="395" type="line"/>
      <point x="211" y="321" type="line"/>
      <point x="199" y="321" type="line"/>
      <point x="199" y="395" type="line"/>
      <point x="160" y="395" type="line"/>
      <point x="160" y="305" type="line"/>
    </contour>
    <contour>
      <point x="750" y="141" type="line"/>
      <point x="711" y="141" type="line"/>
      <point x="711" y="121" type="line"/>
      <point x="699" y="121" type="line"/>
      <point x="699" y="159" type="line"/>
      <point x="660" y="159" type="line"/>
      <point x="660" y="103" type="line"/>
      <point x="705" y="103" type="line"/>
      <point x="750" y="103" type="line"/>
      <point x="750" y="131" type="line"/>
    </contour>
    <contour>
      <point x="750" y="158" type="line"/>
      <point x="750" y="196" type="line"/>
      <point x="705" y="196" type="line"/>
      <point x="660" y="196" type="line"/>
      <point x="660" y="155" type="line"/>
      <point x="699" y="155" type="line"/>
      <point x="699" y="178" type="line"/>
      <point x="711" y="178" type="line"/>
      <point x="711" y="158" type="line"/>
    </contour>
    <contour>
      <point x="760" y="5" type="line"/>
      <point x="799" y="5" type="line"/>
      <point x="799" y="95" type="line"/>
      <point x="760" y="95" type="line"/>
    </contour>
    <contour>
      <point x="810" y="5" type="line"/>
      <point x="850" y="5" type="line"/>
      <point x="833" y="50" type="line"/>
      <point x="850" y="95" type="line"/>
      <point x="810" y="95" type="line"/>
      <point x="797" y="50" type="line"/>
    </contour>
    <contour>
      <point x="60" y="5" type="line"/>
      <point x="99" y="5" type="line"/>
      <point x="99" y="31" type="line"/>
      <point x="149" y="31" type="line"/>
      <point x="149" y="57" type="line"/>
      <point x="99" y="57" type="line"/>
      <point x="99" y="69" type="line"/>
      <point x="150" y="69" type="line"/>
      <point x="150" y="95" type="line"/>
      <point x="60" y="95" type="line"/>
    </contour>
  </outline>
  <lib>
    <dict>
      <key>com.schriftgestaltung.Glyphs.lastChange</key>
      <string>2023-08-10 06:49:53 +0000</string>
    </dict>
  </lib>
</glyph>
